FLT_NBR,DPTR_DATE,ORIG,DEST,OD,DPTR_DATE,SELLING_BKT,FLT_RI_Y,FLT_DIV_Y,FLT_LAST_WORKED,D0_Y_CAB_CLS_CLSD_CNT
1404,2/21/2018,LAX,JFK,LAXJFK,2/21/2018,R,4.466666663,0,1/26/2018,0
1404,4/25/2018,LAX,JFK,LAXJFK,4/25/2018,R,3.39,0,1/23/2018,0
1404,4/4/2018,LAX,JFK,LAXJFK,4/4/2018,R,17.36,0,1/26/2018,0
1404,3/5/2018,LAX,JFK,LAXJFK,3/5/2018,R,-4.636666662,0,1/23/2018,0
1404,3/9/2018,LAX,JFK,LAXJFK,3/9/2018,R,-8.336666671,0,1/26/2018,0
1404,3/20/2018,LAX,JFK,LAXJFK,3/20/2018,R,2.91,0,1/26/2018,0
1404,4/24/2018,LAX,JFK,LAXJFK,4/24/2018,R,-2.59,0,1/26/2018,0
1404,4/30/2018,LAX,JFK,LAXJFK,4/30/2018,G,0.45,0,1/23/2018,0
1404,2/22/2018,LAX,JFK,LAXJFK,2/22/2018,R,-19.42666666,0,1/29/2018,1
1404,2/28/2018,LAX,JFK,LAXJFK,2/28/2018,R,-0.7,0,1/23/2018,1
1404,4/18/2018,LAX,JFK,LAXJFK,4/18/2018,R,9.85,0,1/23/2018,1
1404,3/2/2018,LAX,JFK,LAXJFK,3/2/2018,R,-7.599999993,0,1/16/2018,1
1404,3/12/2018,LAX,JFK,LAXJFK,3/12/2018,R,1,0,1/22/2018,1
1404,3/10/2018,LAX,JFK,LAXJFK,3/10/2018,R,6.66,0,1/29/2018,1
1404,4/21/2018,LAX,JFK,LAXJFK,4/21/2018,T,11.31,0,1/26/2018,1
1404,3/3/2018,LAX,JFK,LAXJFK,3/3/2018,R,-6.76,0,1/18/2018,1
1404,2/27/2018,LAX,JFK,LAXJFK,2/27/2018,R,14.93333334,0,1/22/2018,1
1404,3/1/2018,LAX,JFK,LAXJFK,3/1/2018,R,-2.966666672,0,1/23/2018,1
1404,3/8/2018,LAX,JFK,LAXJFK,3/8/2018,R,8.066666672,0,1/26/2018,1
1404,4/17/2018,LAX,JFK,LAXJFK,4/17/2018,T,-6.95,0,1/26/2018,1
1404,4/20/2018,LAX,JFK,LAXJFK,4/20/2018,K,-0.9,0,1/23/2018,1
1404,4/26/2018,LAX,JFK,LAXJFK,4/26/2018,T,0.45,1.911958875,1/25/2018,2
1404,4/11/2018,LAX,JFK,LAXJFK,4/11/2018,R,-8.19,0,1/25/2018,2
1404,4/19/2018,LAX,JFK,LAXJFK,4/19/2018,R,-0.95,0,1/25/2018,2
1404,4/27/2018,LAX,JFK,LAXJFK,4/27/2018,T,-3.39,0,1/19/2018,2
1404,4/28/2018,LAX,JFK,LAXJFK,4/28/2018,T,13.81,9.963097264,1/29/2018,2
1404,4/29/2018,LAX,JFK,LAXJFK,4/29/2018,L,2.1,1.196384299,,2
1404,3/27/2018,LAX,JFK,LAXJFK,3/27/2018,R,-6.15,0,1/25/2018,2
1404,4/10/2018,LAX,JFK,LAXJFK,4/10/2018,G,-10.15,0,1/25/2018,2
1404,4/23/2018,LAX,JFK,LAXJFK,4/23/2018,K,9.39,0,1/26/2018,2
1404,4/13/2018,LAX,JFK,LAXJFK,4/13/2018,T,-6.79,0,1/25/2018,2
1404,3/14/2018,LAX,JFK,LAXJFK,3/14/2018,R,-6.71,0,1/29/2018,2
1404,3/21/2018,LAX,JFK,LAXJFK,3/21/2018,R,-6.37,0,1/26/2018,2
1404,4/12/2018,LAX,JFK,LAXJFK,4/12/2018,T,-3.49,0,1/12/2018,3
1404,4/14/2018,LAX,JFK,LAXJFK,4/14/2018,K,-5.66,0,1/25/2018,3
1404,4/22/2018,LAX,JFK,LAXJFK,4/22/2018,Q,4.59,0,1/26/2018,3
1404,3/15/2018,LAX,JFK,LAXJFK,3/15/2018,R,-9.92,0,1/25/2018,3
1404,4/3/2018,LAX,JFK,LAXJFK,4/3/2018,K,-1.54,0,1/26/2018,3
1404,4/5/2018,LAX,JFK,LAXJFK,4/5/2018,G,-7.09,0,1/23/2018,4
1404,3/28/2018,LAX,JFK,LAXJFK,3/28/2018,R,-5.64,0,1/19/2018,4
1404,3/22/2018,LAX,JFK,LAXJFK,3/22/2018,T,11.91,0,1/19/2018,4
1404,4/16/2018,LAX,JFK,LAXJFK,4/16/2018,G,-7.56,0,1/23/2018,4
1404,3/19/2018,LAX,JFK,LAXJFK,3/19/2018,R,-8.14,0,1/25/2018,4
1404,3/11/2018,LAX,JFK,LAXJFK,3/11/2018,R,-14.62,0,1/26/2018,4
1404,3/4/2018,LAX,JFK,LAXJFK,3/4/2018,R,-8.72,0,1/26/2018,4
1404,3/16/2018,LAX,JFK,LAXJFK,3/16/2018,R,-10.63,0,1/26/2018,4
1404,4/9/2018,LAX,JFK,LAXJFK,4/9/2018,V,-12.12,0,1/26/2018,5
1404,3/17/2018,LAX,JFK,LAXJFK,3/17/2018,G,-11.04,0,1/22/2018,5
1404,3/26/2018,LAX,JFK,LAXJFK,3/26/2018,L,0.44,0,1/19/2018,5
1404,2/23/2018,LAX,JFK,LAXJFK,2/23/2018,R,-9.24,0,1/29/2018,5
1404,2/26/2018,LAX,JFK,LAXJFK,2/26/2018,G,-10.94166667,0,1/30/2018,5
1404,4/6/2018,LAX,JFK,LAXJFK,4/6/2018,K,-12.02,0,1/26/2018,5
1404,3/29/2018,LAX,JFK,LAXJFK,3/29/2018,G,-5.04,0,1/25/2018,6
1404,4/2/2018,LAX,JFK,LAXJFK,4/2/2018,V,-4.7,0,1/26/2018,6
1404,3/24/2018,LAX,JFK,LAXJFK,3/24/2018,K,-13.19,0,1/25/2018,6
1404,3/25/2018,LAX,JFK,LAXJFK,3/25/2018,V,-6.8,0,1/25/2018,6
1404,3/30/2018,LAX,JFK,LAXJFK,3/30/2018,R,-6.73,0,1/19/2018,6
1404,3/23/2018,LAX,JFK,LAXJFK,3/23/2018,R,-12.87,0,1/19/2018,6
1404,3/31/2018,LAX,JFK,LAXJFK,3/31/2018,L,-14.35,0,1/25/2018,7
1404,4/7/2018,LAX,JFK,LAXJFK,4/7/2018,Q,-2.4,0,1/26/2018,7
1404,4/1/2018,LAX,JFK,LAXJFK,4/1/2018,K,-6.4,0,1/23/2018,7
1404,4/15/2018,LAX,JFK,LAXJFK,4/15/2018,L,-3.29,0,1/26/2018,7
1404,2/25/2018,LAX,JFK,LAXJFK,2/25/2018,Q,-19.35,0,1/24/2018,8
1404,4/8/2018,LAX,JFK,LAXJFK,4/8/2018,B,-0.3,0,1/23/2018,8
1404,2/24/2018,LAX,JFK,LAXJFK,2/24/2018,M,-21.345,0,1/10/2018,9
